^C:\USERS\LAB\SYNCPLICITY FOLDERS\BIOROBOTICS (SEOK CHANG RYU)\ABHISHEK KOTTALA\NEEDLETRACKINGPROJECT\NEEDLETRACKINGPROJECT\NEEDLETRACKINGPROJECT\DEBUG\.NETFRAMEWORK,VERSION=V4.6.1.ASSEMBLYATTRIBUTES.OBJ|C:\USERS\LAB\SYNCPLICITY FOLDERS\BIOROBOTICS (SEOK CHANG RYU)\ABHISHEK KOTTALA\NEEDLETRACKINGPROJECT\NEEDLETRACKINGPROJECT\NEEDLETRACKINGPROJECT\DEBUG\IMAGEFUNCTION.OBJ|C:\USERS\LAB\SYNCPLICITY FOLDERS\BIOROBOTICS (SEOK CHANG RYU)\ABHISHEK KOTTALA\NEEDLETRACKINGPROJECT\NEEDLETRACKINGPROJECT\NEEDLETRACKINGPROJECT\DEBUG\MAINFORM.OBJ|C:\USERS\LAB\SYNCPLICITY FOLDERS\BIOROBOTICS (SEOK CHANG RYU)\ABHISHEK KOTTALA\NEEDLETRACKINGPROJECT\NEEDLETRACKINGPROJECT\NEEDLETRACKINGPROJECT\DEBUG\MIGHTYZAPHANDLER.OBJ|C:\USERS\LAB\SYNCPLICITY FOLDERS\BIOROBOTICS (SEOK CHANG RYU)\ABHISHEK KOTTALA\NEEDLETRACKINGPROJECT\NEEDLETRACKINGPROJECT\NEEDLETRACKINGPROJECT\DEBUG\NOVINTHANDLER.OBJ|C:\USERS\LAB\SYNCPLICITY FOLDERS\BIOROBOTICS (SEOK CHANG RYU)\ABHISHEK KOTTALA\NEEDLETRACKINGPROJECT\NEEDLETRACKINGPROJECT\NEEDLETRACKINGPROJECT\DEBUG\PATHGENERATOR.OBJ|C:\USERS\LAB\SYNCPLICITY FOLDERS\BIOROBOTICS (SEOK CHANG RYU)\ABHISHEK KOTTALA\NEEDLETRACKINGPROJECT\NEEDLETRACKINGPROJECT\NEEDLETRACKINGPROJECT\DEBUG\PHIDGETHANDLER.OBJ|C:\USERS\LAB\SYNCPLICITY FOLDERS\BIOROBOTICS (SEOK CHANG RYU)\ABHISHEK KOTTALA\NEEDLETRACKINGPROJECT\NEEDLETRACKINGPROJECT\NEEDLETRACKINGPROJECT\DEBUG\TRACKEDOBJECT.OBJ|C:\USERS\LAB\SYNCPLICITY FOLDERS\BIOROBOTICS (SEOK CHANG RYU)\ABHISHEK KOTTALA\NEEDLETRACKINGPROJECT\NEEDLETRACKINGPROJECT\NEEDLETRACKINGPROJECT\DEBUG\VISIONHANDLER.OBJ
C:\WINDOWS\GLOBALIZATION\SORTING\SORTDEFAULT.NLS
C:\USERS\LAB\SYNCPLICITY FOLDERS\BIOROBOTICS (SEOK CHANG RYU)\ABHISHEK KOTTALA\NEEDLETRACKINGPROJECT\NEEDLETRACKINGPROJECT\EXTERNAL\CHAI3D-3.2.0\LIB\DEBUG\WIN32\CHAI3D.LIB
C:\USERS\LAB\SYNCPLICITY FOLDERS\BIOROBOTICS (SEOK CHANG RYU)\ABHISHEK KOTTALA\NEEDLETRACKINGPROJECT\NEEDLETRACKINGPROJECT\EXTERNAL\CHAI3D-3.2.0\EXTRAS\FREEGLUT\LIB\DEBUG\WIN32\FREEGLUT.LIB
C:\USERS\LAB\SYNCPLICITY FOLDERS\BIOROBOTICS (SEOK CHANG RYU)\ABHISHEK KOTTALA\NEEDLETRACKINGPROJECT\NEEDLETRACKINGPROJECT\PHIDGET22-WINDEVEL_1.0.0.20180307\PHIDGET22-WINDEVEL\X86\PHIDGET22.LIB
C:\USERS\LAB\SYNCPLICITY FOLDERS\BIOROBOTICS (SEOK CHANG RYU)\ABHISHEK KOTTALA\NEEDLETRACKINGPROJECT\NEEDLETRACKINGPROJECT\MIGHTYZAP\C++\MFCMIGHTYZAPEXAMPLE_VS2010_170714\MFCMIGHTYZAPEXAMPLE\DEBUG\CPPLIBMIGHTYZAP.LIB
C:\OPENCV2413\BUILD\X86\VC14\LIB\OPENCV_CALIB3D2413D.LIB
C:\OPENCV2413\BUILD\X86\VC14\LIB\OPENCV_CONTRIB2413D.LIB
C:\OPENCV2413\BUILD\X86\VC14\LIB\OPENCV_CORE2413D.LIB
C:\OPENCV2413\BUILD\X86\VC14\LIB\OPENCV_FEATURES2D2413D.LIB
C:\OPENCV2413\BUILD\X86\VC14\LIB\OPENCV_FLANN2413D.LIB
C:\OPENCV2413\BUILD\X86\VC14\LIB\OPENCV_GPU2413D.LIB
C:\OPENCV2413\BUILD\X86\VC14\LIB\OPENCV_HIGHGUI2413D.LIB
C:\OPENCV2413\BUILD\X86\VC14\LIB\OPENCV_IMGPROC2413D.LIB
C:\OPENCV2413\BUILD\X86\VC14\LIB\OPENCV_LEGACY2413D.LIB
C:\OPENCV2413\BUILD\X86\VC14\LIB\OPENCV_ML2413D.LIB
C:\OPENCV2413\BUILD\X86\VC14\LIB\OPENCV_NONFREE2413D.LIB
C:\OPENCV2413\BUILD\X86\VC14\LIB\OPENCV_OBJDETECT2413D.LIB
C:\OPENCV2413\BUILD\X86\VC14\LIB\OPENCV_OCL2413D.LIB
C:\OPENCV2413\BUILD\X86\VC14\LIB\OPENCV_PHOTO2413D.LIB
C:\OPENCV2413\BUILD\X86\VC14\LIB\OPENCV_STITCHING2413D.LIB
C:\OPENCV2413\BUILD\X86\VC14\LIB\OPENCV_SUPERRES2413D.LIB
C:\OPENCV2413\BUILD\X86\VC14\LIB\OPENCV_TS2413D.LIB
C:\OPENCV2413\BUILD\X86\VC14\LIB\OPENCV_VIDEO2413D.LIB
C:\OPENCV2413\BUILD\X86\VC14\LIB\OPENCV_VIDEOSTAB2413D.LIB
C:\USERS\LAB\SYNCPLICITY FOLDERS\BIOROBOTICS (SEOK CHANG RYU)\ABHISHEK KOTTALA\NEEDLETRACKINGPROJECT\NEEDLETRACKINGPROJECT\NEEDLETRACKINGPROJECT\DEBUG\IMAGEFUNCTION.OBJ
C:\USERS\LAB\SYNCPLICITY FOLDERS\BIOROBOTICS (SEOK CHANG RYU)\ABHISHEK KOTTALA\NEEDLETRACKINGPROJECT\NEEDLETRACKINGPROJECT\NEEDLETRACKINGPROJECT\DEBUG\MAINFORM.OBJ
C:\USERS\LAB\SYNCPLICITY FOLDERS\BIOROBOTICS (SEOK CHANG RYU)\ABHISHEK KOTTALA\NEEDLETRACKINGPROJECT\NEEDLETRACKINGPROJECT\NEEDLETRACKINGPROJECT\DEBUG\MIGHTYZAPHANDLER.OBJ
C:\USERS\LAB\SYNCPLICITY FOLDERS\BIOROBOTICS (SEOK CHANG RYU)\ABHISHEK KOTTALA\NEEDLETRACKINGPROJECT\NEEDLETRACKINGPROJECT\NEEDLETRACKINGPROJECT\DEBUG\NOVINTHANDLER.OBJ
C:\USERS\LAB\SYNCPLICITY FOLDERS\BIOROBOTICS (SEOK CHANG RYU)\ABHISHEK KOTTALA\NEEDLETRACKINGPROJECT\NEEDLETRACKINGPROJECT\NEEDLETRACKINGPROJECT\DEBUG\PATHGENERATOR.OBJ
C:\USERS\LAB\SYNCPLICITY FOLDERS\BIOROBOTICS (SEOK CHANG RYU)\ABHISHEK KOTTALA\NEEDLETRACKINGPROJECT\NEEDLETRACKINGPROJECT\NEEDLETRACKINGPROJECT\DEBUG\PHIDGETHANDLER.OBJ
C:\USERS\LAB\SYNCPLICITY FOLDERS\BIOROBOTICS (SEOK CHANG RYU)\ABHISHEK KOTTALA\NEEDLETRACKINGPROJECT\NEEDLETRACKINGPROJECT\NEEDLETRACKINGPROJECT\DEBUG\TRACKEDOBJECT.OBJ
C:\USERS\LAB\SYNCPLICITY FOLDERS\BIOROBOTICS (SEOK CHANG RYU)\ABHISHEK KOTTALA\NEEDLETRACKINGPROJECT\NEEDLETRACKINGPROJECT\NEEDLETRACKINGPROJECT\DEBUG\VISIONHANDLER.OBJ
C:\USERS\LAB\SYNCPLICITY FOLDERS\BIOROBOTICS (SEOK CHANG RYU)\ABHISHEK KOTTALA\NEEDLETRACKINGPROJECT\NEEDLETRACKINGPROJECT\NEEDLETRACKINGPROJECT\DEBUG\.NETFRAMEWORK,VERSION=V4.6.1.ASSEMBLYATTRIBUTES.OBJ
C:\PROGRAM FILES (X86)\MICROSOFT VISUAL STUDIO\2017\COMMUNITY\VC\TOOLS\MSVC\14.12.25827\INCLUDE\MANIFEST\DPIAWARE.MANIFEST
C:\PROGRAM FILES (X86)\MICROSOFT VISUAL STUDIO\2017\COMMUNITY\VC\TOOLS\MSVC\14.12.25827\BIN\HOSTX86\X86\LINK.EXE
C:\WINDOWS\SYSTEM32\TZRES.DLL
C:\WINDOWS\MICROSOFT.NET\FRAMEWORK\V2.0.50727\MSCORWKS.DLL
C:\WINDOWS\MICROSOFT.NET\FRAMEWORK\V4.0.30319\CLR.DLL
C:\PROGRAM FILES (X86)\MICROSOFT VISUAL STUDIO\2017\COMMUNITY\VC\TOOLS\MSVC\14.12.25827\BIN\HOSTX86\X86\LINK.EXE.CONFIG
C:\PROGRAM FILES (X86)\MICROSOFT VISUAL STUDIO\2017\COMMUNITY\VC\TOOLS\MSVC\14.12.25827\BIN\HOSTX86\X86\1033\LINKUI.DLL
C:\PROGRAM FILES (X86)\MICROSOFT VISUAL STUDIO\2017\COMMUNITY\VC\TOOLS\MSVC\14.12.25827\LIB\X86\MSVCPRTD.LIB
C:\PROGRAM FILES (X86)\MICROSOFT VISUAL STUDIO\2017\COMMUNITY\VC\TOOLS\MSVC\14.12.25827\LIB\X86\MSVCRTD.LIB
C:\PROGRAM FILES (X86)\MICROSOFT VISUAL STUDIO\2017\COMMUNITY\VC\TOOLS\MSVC\14.12.25827\LIB\X86\OLDNAMES.LIB
C:\PROGRAM FILES (X86)\MICROSOFT VISUAL STUDIO\2017\COMMUNITY\VC\TOOLS\MSVC\14.12.25827\LIB\X86\MSVCMRTD.LIB
C:\PROGRAM FILES (X86)\WINDOWS KITS\NETFXSDK\4.6.1\LIB\UM\X86\MSCOREE.LIB
C:\PROGRAM FILES (X86)\MICROSOFT VISUAL STUDIO\2017\COMMUNITY\VC\TOOLS\MSVC\14.12.25827\ATLMFC\LIB\X86\MFC140UD.LIB
C:\PROGRAM FILES (X86)\MICROSOFT VISUAL STUDIO\2017\COMMUNITY\VC\TOOLS\MSVC\14.12.25827\ATLMFC\LIB\X86\MFCS140UD.LIB
C:\PROGRAM FILES (X86)\WINDOWS KITS\10\LIB\10.0.16299.0\UM\X86\KERNEL32.LIB
C:\PROGRAM FILES (X86)\WINDOWS KITS\10\LIB\10.0.16299.0\UM\X86\USER32.LIB
C:\PROGRAM FILES (X86)\WINDOWS KITS\10\LIB\10.0.16299.0\UM\X86\GDI32.LIB
C:\PROGRAM FILES (X86)\WINDOWS KITS\10\LIB\10.0.16299.0\UM\X86\MSIMG32.LIB
C:\PROGRAM FILES (X86)\WINDOWS KITS\10\LIB\10.0.16299.0\UM\X86\COMDLG32.LIB
C:\PROGRAM FILES (X86)\WINDOWS KITS\10\LIB\10.0.16299.0\UM\X86\WINSPOOL.LIB
C:\PROGRAM FILES (X86)\WINDOWS KITS\10\LIB\10.0.16299.0\UM\X86\ADVAPI32.LIB
C:\PROGRAM FILES (X86)\WINDOWS KITS\10\LIB\10.0.16299.0\UM\X86\SHELL32.LIB
C:\PROGRAM FILES (X86)\WINDOWS KITS\10\LIB\10.0.16299.0\UM\X86\COMCTL32.LIB
C:\PROGRAM FILES (X86)\WINDOWS KITS\10\LIB\10.0.16299.0\UM\X86\SHLWAPI.LIB
C:\PROGRAM FILES (X86)\WINDOWS KITS\10\LIB\10.0.16299.0\UM\X86\UXTHEME.LIB
C:\PROGRAM FILES (X86)\WINDOWS KITS\10\LIB\10.0.16299.0\UM\X86\WINDOWSCODECS.LIB
C:\PROGRAM FILES (X86)\WINDOWS KITS\10\LIB\10.0.16299.0\UM\X86\UUID.LIB
C:\PROGRAM FILES (X86)\MICROSOFT VISUAL STUDIO\2017\COMMUNITY\VC\TOOLS\MSVC\14.12.25827\ATLMFC\LIB\X86\ATLS.LIB
C:\PROGRAM FILES (X86)\WINDOWS KITS\10\LIB\10.0.16299.0\UM\X86\OLE32.LIB
C:\PROGRAM FILES (X86)\WINDOWS KITS\10\LIB\10.0.16299.0\UM\X86\OLEAUT32.LIB
C:\PROGRAM FILES (X86)\WINDOWS KITS\10\LIB\10.0.16299.0\UM\X86\OLEDLG.LIB
C:\PROGRAM FILES (X86)\WINDOWS KITS\10\LIB\10.0.16299.0\UM\X86\URLMON.LIB
C:\PROGRAM FILES (X86)\WINDOWS KITS\10\LIB\10.0.16299.0\UM\X86\GDIPLUS.LIB
C:\PROGRAM FILES (X86)\MICROSOFT VISUAL STUDIO\2017\COMMUNITY\VC\TOOLS\MSVC\14.12.25827\LIB\X86\COMSUPPWD.LIB
C:\PROGRAM FILES (X86)\WINDOWS KITS\10\LIB\10.0.16299.0\UM\X86\WINMM.LIB
C:\PROGRAM FILES (X86)\WINDOWS KITS\10\LIB\10.0.16299.0\UM\X86\GLU32.LIB
C:\PROGRAM FILES (X86)\WINDOWS KITS\10\LIB\10.0.16299.0\UM\X86\OPENGL32.LIB
C:\USERS\LAB\SYNCPLICITY FOLDERS\BIOROBOTICS (SEOK CHANG RYU)\ABHISHEK KOTTALA\NEEDLETRACKINGPROJECT\NEEDLETRACKINGPROJECT\MFC100UD\MFC100UD.LIB
C:\USERS\LAB\SYNCPLICITY FOLDERS\BIOROBOTICS (SEOK CHANG RYU)\ABHISHEK KOTTALA\NEEDLETRACKINGPROJECT\NEEDLETRACKINGPROJECT\MFC100UD\MFCS100UD.LIB
C:\USERS\LAB\SYNCPLICITY FOLDERS\BIOROBOTICS (SEOK CHANG RYU)\ABHISHEK KOTTALA\NEEDLETRACKINGPROJECT\NEEDLETRACKINGPROJECT\MFC100UD\ATLSD.LIB
C:\PROGRAM FILES (X86)\WINDOWS KITS\10\LIB\10.0.16299.0\UCRT\X86\UCRTD.LIB
C:\PROGRAM FILES (X86)\WINDOWS KITS\10\LIB\10.0.16299.0\UM\X86\WININET.LIB
C:\PROGRAM FILES (X86)\WINDOWS KITS\10\LIB\10.0.16299.0\UM\X86\WS2_32.LIB
C:\PROGRAM FILES (X86)\WINDOWS KITS\10\LIB\10.0.16299.0\UM\X86\MSWSOCK.LIB
C:\PROGRAM FILES (X86)\MICROSOFT VISUAL STUDIO\2017\COMMUNITY\VC\TOOLS\MSVC\14.12.25827\LIB\X86\VCRUNTIMED.LIB
C:\PROGRAM FILES (X86)\WINDOWS KITS\10\BIN\10.0.16299.0\X86\MT.EXE
C:\PROGRAM FILES (X86)\WINDOWS KITS\10\BIN\10.0.16299.0\X86\RC.EXE
C:\PROGRAM FILES (X86)\MICROSOFT VISUAL STUDIO\2017\COMMUNITY\VC\TOOLS\MSVC\14.12.25827\BIN\HOSTX86\X86\CVTRES.EXE
C:\PROGRAM FILES (X86)\MICROSOFT VISUAL STUDIO\2017\COMMUNITY\VC\TOOLS\MSVC\14.12.25827\BIN\HOSTX86\X86\MSPDBSRV.EXE
C:\USERS\LAB\SYNCPLICITY FOLDERS\BIOROBOTICS (SEOK CHANG RYU)\ABHISHEK KOTTALA\NEEDLETRACKINGPROJECT\NEEDLETRACKINGPROJECT\NEEDLETRACKINGPROJECT\DEBUG\NEEDLETRACKINGPROJECT.MAINFORM.RESOURCES
