^C:\USERS\ROHITHKARTHIKEYAN\SYNCPLICITY FOLDERS\BIOROBOTICS (SEOK CHANG RYU)\ROHITH KARTHIKEYAN\CODE\STEERING_SYSTEM_1\STEERING_SYSTEM_1\STDAFX.CPP
/c /I"C:/PROGRAM FILES/PHIDGETS" /ZI /nologo /W3 /WX- /sdl /Od /Oy- /D WIN32 /D _DEBUG /D _CONSOLE /D _UNICODE /D UNICODE /Gm /EHsc /RTC1 /MDd /GS /fp:precise /Zc:wchar_t /Zc:forScope /Zc:inline /Yc"stdafx.h" /Fp"DEBUG\STEERING_SYSTEM_1.PCH" /Fo"DEBUG\\" /Fd"DEBUG\VC140.PDB" /Gd /TP /analyze- C:\USERS\ROHITHKARTHIKEYAN\SYNCPLICITY FOLDERS\BIOROBOTICS (SEOK CHANG RYU)\ROHITH KARTHIKEYAN\CODE\STEERING_SYSTEM_1\STEERING_SYSTEM_1\STDAFX.CPP
^C:\USERS\ROHITHKARTHIKEYAN\SYNCPLICITY FOLDERS\BIOROBOTICS (SEOK CHANG RYU)\ROHITH KARTHIKEYAN\CODE\STEERING_SYSTEM_1\STEERING_SYSTEM_1\STEERING_SYSTEM_1.CPP
/c /I"C:/PROGRAM FILES/PHIDGETS" /ZI /nologo /W3 /WX- /sdl /Od /Oy- /D WIN32 /D _DEBUG /D _CONSOLE /D _UNICODE /D UNICODE /Gm /EHsc /RTC1 /MDd /GS /fp:precise /Zc:wchar_t /Zc:forScope /Zc:inline /Yu"stdafx.h" /Fp"DEBUG\STEERING_SYSTEM_1.PCH" /Fo"DEBUG\\" /Fd"DEBUG\VC140.PDB" /Gd /TP /analyze- C:\USERS\ROHITHKARTHIKEYAN\SYNCPLICITY FOLDERS\BIOROBOTICS (SEOK CHANG RYU)\ROHITH KARTHIKEYAN\CODE\STEERING_SYSTEM_1\STEERING_SYSTEM_1\STEERING_SYSTEM_1.CPP
^C:\USERS\ROHITHKARTHIKEYAN\SYNCPLICITY FOLDERS\BIOROBOTICS (SEOK CHANG RYU)\ROHITH KARTHIKEYAN\CODE\STEERING_SYSTEM_INTEGRATED - COPY\STEERING_SYSTEM_1\STDAFX.CPP
/c /I"C:/PROGRAM FILES/PHIDGETS" /ZI /nologo /W3 /WX- /sdl /Od /Oy- /D WIN32 /D _DEBUG /D _CONSOLE /D _UNICODE /D UNICODE /Gm /EHsc /RTC1 /MDd /GS /fp:precise /Zc:wchar_t /Zc:forScope /Zc:inline /Yc"stdafx.h" /Fp"DEBUG\STEERING_SYSTEM_1.PCH" /Fo"DEBUG\\" /Fd"DEBUG\VC140.PDB" /Gd /TP /analyze- C:\USERS\ROHITHKARTHIKEYAN\SYNCPLICITY FOLDERS\BIOROBOTICS (SEOK CHANG RYU)\ROHITH KARTHIKEYAN\CODE\STEERING_SYSTEM_INTEGRATED - COPY\STEERING_SYSTEM_1\STDAFX.CPP
^C:\USERS\ROHITHKARTHIKEYAN\SYNCPLICITY FOLDERS\BIOROBOTICS (SEOK CHANG RYU)\ROHITH KARTHIKEYAN\CODE\STEERING_SYSTEM_INTEGRATED - COPY\STEERING_SYSTEM_1\STEERING_SYSTEM_1.CPP
/c /I"C:/PROGRAM FILES/PHIDGETS" /ZI /nologo /W3 /WX- /sdl /Od /Oy- /D WIN32 /D _DEBUG /D _CONSOLE /D _UNICODE /D UNICODE /Gm /EHsc /RTC1 /MDd /GS /fp:precise /Zc:wchar_t /Zc:forScope /Zc:inline /Yu"stdafx.h" /Fp"DEBUG\STEERING_SYSTEM_1.PCH" /Fo"DEBUG\\" /Fd"DEBUG\VC140.PDB" /Gd /TP /analyze- C:\USERS\ROHITHKARTHIKEYAN\SYNCPLICITY FOLDERS\BIOROBOTICS (SEOK CHANG RYU)\ROHITH KARTHIKEYAN\CODE\STEERING_SYSTEM_INTEGRATED - COPY\STEERING_SYSTEM_1\STEERING_SYSTEM_1.CPP
